[
{"templateName": "item",
"type": "item",
"categories": ["item"],
"nameInfo": {"proc": "default name"},
"flags": ["damaged by mana", "damaged by chaos"],
"display": {"ascii": {"color": [192, 192, 192]}}},

{"templateName": "unique",
"templates": "item",
"categories": ["unique"],
"nameInfo": {"proc": "unique name"}},

{"templateName": "artifact",
"templates": "unique",
"flags": ["indestructible"],
"categories": ["artifact"]},

{"templateName": "money",
"type": "money",
"templates": "item",
"categories": ["money"],
"display": {"ascii": {"symbol": "$"}}},

{"templateName": "junk",
"type": "junk",
"templates": "item",
"categories": ["junk"],
"display": {"ascii": {"symbol": "~"},
"flags": ["EASY_KNOW"]}},

{"templateName": "skeleton",
"type": "skeleton",
"templates": "junk",
"categories": ["skeleton"],
"display": {"ascii": {"color": [255, 255, 255]}}},

{"templateName": "light source",
"type": "light source", 
"templates": "item",
"categories": ["light source"],
"equipSlots": ["light source"],
"flags": ["damaged by fire"],
"display": {"ascii": {"symbol": "~"}}},

{"templateName": "misc",
"type": "misc",
"templates": "item",
"categories": ["misc"],
"display": {"ascii": {"symbol": "~"}},
"flags": ["EASY_KNOW"]},

{"templateName": "flask",
"type": "flask",
"templates": "misc",
"categories": ["flask"],
"flags": ["damaged by shards"],
"display": {"ascii": {"symbol": "!"}}},

{"templateName": "bottle",
"type": "bottle",
"templates": "misc",
"categories": ["bottle"],
"flags": ["damaged by shards"],
"display": {"ascii": {"symbol": "!"}}},

{"templateName": "spike",
"type": "spike",
"templates": "misc",
"categories": ["spike"]},


{"templateName": "container",
"type": "container",
"templates": "item",
"categories": ["container"],
"display": {"ascii": {"symbol": "~"}}},


{"templateName": "book",
"type": "book",
"templates": "container",
"categories": ["book"],
"flags": ["damaged by fire"],
"display": {"ascii": {"symbol": "?"}}, 
"stats": {"cost": 100, "weight": 3.0}, 
"flags": ["EASY_KNOW"]},

{"templateName": "magic book",
"type": "magic book",
"templates": "book", 
"categories": ["magic book"],
"nameInfo": {"baseNoun": "Magic Book~"},
"display": {"ascii": {"color": [255, 64, 64]}}},

{"templateName": "prayer book",
"type": "prayer book",
"templates": "book", 
"categories": ["prayer book"],
"nameInfo": {"baseNoun": "Prayer Book~"},
"display": {"ascii": {"color": [0, 255, 0]}}},


{"templateName": "consumable",
"type": "consumable",
"templates": "item",
"categories": ["consumable"],
"procs": [{"name": "reduce quantity", "triggerCondition": "item use"}]},

{"templateName": "food",
"type": "food",
"templates": "consumable",
"categories": ["food"],
"display": {"ascii": {"symbol": ","}}, 
"flags": ["EASY_KNOW"]},

{"templateName": "mushroom",
"templates": "food",
"categories": ["mushroom"],
"nameInfo": {"baseNoun": "mushroom~", "flavorTypes": ["Colors", "Textures"]},
"display": {"ascii": {"color": "flavor"}},
"flags": ["FLAVORED"]},


{"templateName": "magic item",
"type": "magic item",
"templates": "item",
"categories": ["magic item"],
"display": {"ascii": {"color": "flavor"}}, 
"flags": ["FLAVORED"]},

{"templateName": "amulet",
"type": "amulet",
"templates": "magic item",
"categories": ["amulet"],
"nameInfo": {"baseNoun": "amulet~", "flavorTypes": ["Stones", "Miscellaneous"]},
"display": {"ascii": {"symbol": "\""}}, 
"equipSlots": ["neck"], 
"stats": {"weight": 0.3}},

{"templateName": "potion",
"type": "potion", 
"templates": ["magic item", "consumable"],
"categories": ["potion"],
"nameInfo": {"baseNoun": "potion~", "flavorTypes": ["Colors", "Liquids"]},
"display": {"ascii": {"symbol": "!"}}, 
"stats": {"weight": 0.4}, 
"flags": ["damaged by cold", "damaged by shards", "EASY_KNOW"]},

{"templateName": "ring",
"type": "ring",
"templates": "magic item",
"categories": ["ring"],
"nameInfo": {"baseNoun": "ring~", "flavorTypes": ["Stones", "Metals", "Miscellaneous"]},
"display": {"ascii": {"symbol": "="}}, 
"equipSlots": ["finger"], 
"stats": {"weight": 0.2}, 
"flags": ["damaged by electricity"]},

{"templateName": "rod",
"type": "rod",
"templates": "magic item",
"categories": ["rod"],
"nameInfo": {"baseNoun": "rod~", "flavorTypes": ["Metals"]},
"display": {"ascii": {"symbol": "-"}}, 
"stats": {"weight": 1.5}, 
"flags": ["damaged by electricity", "EASY_KNOW"]},

{"templateName": "scroll",
"type": "scroll",
"templates": ["magic item", "consumable"],
"categories": ["scroll"],
"nameInfo": {"baseNoun": "scroll~", "flavorTypes": ["Titles"], "flavorPosition": "suffix"},
"display": {"ascii": {"color": [255, 255, 255], "symbol": "?"}}, 
"stats": {"weight": 0.5}, 
"flags": ["damaged by fire", "damaged by acid", "EASY_KNOW"]},

{"templateName": "staff",
"type": "staff",
"templates": "magic item",
"categories": ["staff"],
"nameInfo": {"baseNoun": "staff:staves", "flavorTypes": ["Woods"]},
"display": {"ascii": {"symbol": "_"}}, 
"stats": {"weight": 5.0}, 
"flags": ["damaged by fire", "EASY_KNOW"]},

{"templateName": "wand",
"type": "wand",
"templates": "magic item",
"categories": ["wand"],
"nameInfo": {"baseNoun": "wand~", "flavorTypes": ["Metals"]},
"display": {"ascii": {"symbol": "-"}}, 
"stats": {"weight": 5.0}, 
"flags": ["damaged by electricity", "EASY_KNOW"]},



{"templateName": "weapon",
"type": "weapon",
"templates": "item",
"categories": ["weapon"],
"flags": ["damaged by acid", "damaged by fire"],
"equipSlots": ["weapon"]},

{"templateName": "digger",
"type": "digger",
"templates": "weapon",
"categories": ["digger"],
"display": {"ascii": {"symbol": "\\"}}},

{"templateName": "hafted",
"type": "hafted",
"templates": "weapon",
"categories": ["hafted"],
"display": {"ascii": {"symbol": "\\"}}},

{"templateName": "polearm",
"type": "polearm",
"templates": "weapon",
"categories": ["polearm"],
"display": {"ascii": {"symbol": "/"}}},

{"templateName": "sword",
"type": "sword",
"templates": "weapon",
"categories": ["sword"],
"display": {"ascii": {"symbol": "|"}}},



{"templateName": "launcher",
"type": "launcher",
"templates": "item",
"categories": ["launcher"],
"display": {"ascii": {"symbol": "}"}}, 
"flags": ["damaged by acid", "damaged by fire"],
"equipSlots": ["launcher"]},

{"templateName": "sling",
"type": "sling",
"templates": "launcher",
"categories": ["sling"],
"nameInfo": {"baseNoun": "sling~"}},

{"templateName": "bow",
"type": "bow",
"templates": "launcher",
"categories": ["bow"],
"nameInfo": {"baseNoun": "bow~"}},

{"templateName": "crossbow",
"type": "crossbow",
"templates": "launcher",
"categories": ["crossbow"],
"nameInfo": {"baseNoun": "crossbow~"}},


{"templateName": "ammo",
"type": "ammo",
"templates": "item",
"categories": ["ammo"],
"equipSlots": ["quiver"],
"display": {"ascii": {"symbol": "{"}}},

{"templateName": "shot",
"type": "shot",
"templates": "ammo",
"categories": ["shot"],
"flags": ["damaged by acid"],
"nameInfo": {"baseNoun": "shot~"}},

{"templateName": "arrow",
"type": "arrow",
"templates": "ammo",
"categories": ["arrow"],
"flags": ["damaged by acid", "damaged by fire"],
"nameInfo": {"baseNoun": "arrow~"}},

{"templateName": "bolt",
"type": "bolt",
"templates": "ammo",
"categories": ["bolt"],
"flags": ["damaged by acid"],
"nameInfo": {"baseNoun": "bolt~"}},



{"templateName": "armor",
"type": "armor",
"templates": "item",
"flags": ["damaged by acid", "damaged by fire"],
"categories": ["armor"]},

{"templateName": "shield",
"type": "shield",
"templates": "armor",
"categories": ["shield"],
"equipSlots": ["shield"],
"nameInfo": {"baseNoun": "shield~"},
"display": {"ascii": {"symbol": ")"}}},

{"templateName": "body armor",
"type": "body armor",
"templates": "armor",
"categories": ["body armor"],
"equipSlots": ["body"]},

{"templateName": "soft armor",
"type": "soft armor",
"templates": "body armor",
"categories": ["soft armor"],
"display": {"ascii": {"symbol": "("}}},

{"templateName": "hard armor",
"type": "hard armor",
"templates": "body armor",
"categories": ["hard armor"],
"flags": ["ignores fire"],
"display": {"ascii": {"symbol": "["}}},

{"templateName": "dragon armor",
"type": "dragon armor",
"templates": "body armor",
"categories": ["dragon armor"],
"display": {"ascii": {"symbol": "["}}, 
"stats": {"meleeFinesse": -2, "armorMod": 10}, 
"flags": ["ignores acid", "ignores electricity", "ignores fire", "ignores cold", "GOOD"]},

{"templateName": "head armor",
"type": "head armor",
"templates": "armor",
"categories": ["head armor"],
"equipSlots": ["head"],
"display": {"ascii": {"symbol": "]"}}},

{"templateName": "crown",
"type": "crown",
"templates": "head armor",
"categories": ["crown"],
"flags": ["ignores fire"],
"nameInfo": {"baseNoun": "crown~"}},

{"templateName": "helm",
"type": "helm",
"templates": "head armor",
"categories": ["helm"],
"flags": ["ignores fire"],
"nameInfo": {"baseNoun": "helm~"}},

{"templateName": "cap",
"type": "cap",
"templates": "head armor",
"categories": ["cap"]},

{"templateName": "hand armor",
"type": "hand armor",
"templates": "armor",
"categories": ["hand armor"],
"equipSlots": ["hands"],
"display": {"ascii": {"symbol": "]"}}},

{"templateName": "foot armor",
"type": "foot armor",
"templates": "armor",
"categories": ["foot armor"],
"equipSlots": ["feet"],
"display": {"ascii": {"symbol": "]"}}},

{"templateName": "shoes",
"type": "shoes",
"templates": "foot armor",
"categories": ["shoes"],
"nameInfo": {"modifierNoun": "pair~ of", "baseNoun": "shoes"}},

{"templateName": "boots",
"type": "boots",
"templates": "foot armor",
"categories": ["boots"],
"nameInfo": {"modifierNoun": "pair~ of", "baseNoun": "boots"}},

{"templateName": "cloak",
"type": "cloak",
"templates": "armor",
"categories": ["cloak"],
"equipSlots": ["back"],
"nameInfo": {"baseNoun": "cloak~"},
"display": {"ascii": {"symbol": "("}}}
]
